trace.vcd
$version Generated by VerilatedVcd $end
$date Fri Apr 24 15:15:19 2020
 $end
$timescale 1ns $end

 $scope module TOP $end
  $var wire  1 ") clk $end
  $var wire  1 "* rst $end
  $var wire  1 ". scl $end
  $var wire  1 ", scl_i $end
  $var wire  1 "- sda $end
  $var wire  1 "+ sda_i $end
  $scope module v $end
   $var wire  1 Q bus_active $end
   $var wire  7 O bus_address [6:0] $end
   $var wire  1 P bus_addressed $end
   $var wire  1 N busy $end
   $var wire  1 ") clk $end
   $var wire  8 | data_in [7:0] $end
   $var wire  1 "0 data_in_last $end
   $var wire  1 J data_in_ready $end
   $var wire  1 } data_in_valid $end
   $var wire  8 K data_out [7:0] $end
   $var wire  1 M data_out_last $end
   $var wire  1 "0 data_out_ready $end
   $var wire  1 L data_out_valid $end
   $var wire  8 K data_value [7:0] $end
   $var wire  1 R data_wren $end
   $var wire 16 "# dataaddr [15:0] $end
   $var wire  7 "1 device_address [6:0] $end
   $var wire  7 "2 device_address_mask [6:0] $end
   $var wire  1 "0 enable $end
   $var wire  1 ~ initiate $end
   $var wire  8 "" offset [7:0] $end
   $var wire  8 "! page [7:0] $end
   $var wire  1 "/ release_bus $end
   $var wire  1 "* rst $end
   $var wire  1 ". scl $end
   $var wire  1 ", scl_i $end
   $var wire  1 e scl_o1 $end
   $var wire  1 I scl_o2 $end
   $var wire  1 c scl_t1 $end
   $var wire  1 I scl_t2 $end
   $var wire  1 "- sda $end
   $var wire  1 "+ sda_i $end
   $var wire  1 d sda_o1 $end
   $var wire  1 H sda_o2 $end
   $var wire  1 b sda_t1 $end
   $var wire  1 H sda_t2 $end
   $scope module mymaster $end
    $var wire 32 "= PAYLOADS [31:0] $end
    $var wire  3 "& bitcounter [2:0] $end
    $var wire  1 ") clk $end
    $var wire 32 "( current_state [31:0] $end
    $var wire 32 D data_size [31:0] $end
    $var wire  1 h en_bitcounter $end
    $var wire 32 "$ global_timer [31:0] $end
    $var wire  8 ' i2c_data(0) [7:0] $end
    $var wire  8 ( i2c_data(1) [7:0] $end
    $var wire  8 1 i2c_data(10) [7:0] $end
    $var wire  8 2 i2c_data(11) [7:0] $end
    $var wire  8 3 i2c_data(12) [7:0] $end
    $var wire  8 4 i2c_data(13) [7:0] $end
    $var wire  8 5 i2c_data(14) [7:0] $end
    $var wire  8 6 i2c_data(15) [7:0] $end
    $var wire  8 7 i2c_data(16) [7:0] $end
    $var wire  8 8 i2c_data(17) [7:0] $end
    $var wire  8 9 i2c_data(18) [7:0] $end
    $var wire  8 : i2c_data(19) [7:0] $end
    $var wire  8 ) i2c_data(2) [7:0] $end
    $var wire  8 ; i2c_data(20) [7:0] $end
    $var wire  8 < i2c_data(21) [7:0] $end
    $var wire  8 = i2c_data(22) [7:0] $end
    $var wire  8 > i2c_data(23) [7:0] $end
    $var wire  8 ? i2c_data(24) [7:0] $end
    $var wire  8 @ i2c_data(25) [7:0] $end
    $var wire  8 A i2c_data(26) [7:0] $end
    $var wire  8 B i2c_data(27) [7:0] $end
    $var wire  8 C i2c_data(28) [7:0] $end
    $var wire  8 * i2c_data(3) [7:0] $end
    $var wire  8 + i2c_data(4) [7:0] $end
    $var wire  8 , i2c_data(5) [7:0] $end
    $var wire  8 - i2c_data(6) [7:0] $end
    $var wire  8 . i2c_data(7) [7:0] $end
    $var wire  8 / i2c_data(8) [7:0] $end
    $var wire  8 0 i2c_data(9) [7:0] $end
    $var wire 32 "< idle_time [31:0] $end
    $var wire 32 "' index [31:0] $end
    $var wire  1 ~ initiate $end
    $var wire 32 i next_state [31:0] $end
    $var wire  8 # payload_sizes(0) [7:0] $end
    $var wire  8 $ payload_sizes(1) [7:0] $end
    $var wire  8 % payload_sizes(2) [7:0] $end
    $var wire  8 & payload_sizes(3) [7:0] $end
    $var wire  1 "* rst $end
    $var wire  1 g rst_bitcounter $end
    $var wire  1 f rst_timer $end
    $var wire  1 ", scl_i $end
    $var wire  1 e scl_o $end
    $var wire  1 c scl_t $end
    $var wire  1 "+ sda_i $end
    $var wire  1 d sda_o $end
    $var wire  1 b sda_t $end
    $var wire  7 "> slave_address_datacnt [6:0] $end
    $var wire 32 "% timer [31:0] $end
    $scope module unnamedblk1 $end
     $var wire 32 E i [31:0] $end
     $var wire 32 F j [31:0] $end
     $var wire 32 G n [31:0] $end
    $upscope $end
   $upscope $end
   $scope module myslave $end
    $var wire 32 "3 FILTER_LEN [31:0] $end
    $var wire  5 "6 STATE_ACK [4:0] $end
    $var wire  5 "5 STATE_ADDRESS [4:0] $end
    $var wire  5 "4 STATE_IDLE [4:0] $end
    $var wire  5 "9 STATE_READ_1 [4:0] $end
    $var wire  5 ": STATE_READ_2 [4:0] $end
    $var wire  5 "; STATE_READ_3 [4:0] $end
    $var wire  5 "7 STATE_WRITE_1 [4:0] $end
    $var wire  5 "8 STATE_WRITE_2 [4:0] $end
    $var wire  7 k addr_next [6:0] $end
    $var wire  7 O addr_reg [6:0] $end
    $var wire  4 p bit_count_next [3:0] $end
    $var wire  4 Y bit_count_reg [3:0] $end
    $var wire  1 Q bus_active $end
    $var wire  1 Q bus_active_reg $end
    $var wire  7 O bus_address [6:0] $end
    $var wire  1 P bus_addressed $end
    $var wire  1 w bus_addressed_next $end
    $var wire  1 P bus_addressed_reg $end
    $var wire  1 N busy $end
    $var wire  1 N busy_reg $end
    $var wire  1 ") clk $end
    $var wire  8 | data_in [7:0] $end
    $var wire  1 "0 data_in_last $end
    $var wire  1 J data_in_ready $end
    $var wire  1 q data_in_ready_next $end
    $var wire  1 J data_in_ready_reg $end
    $var wire  1 } data_in_valid $end
    $var wire  8 l data_next [7:0] $end
    $var wire  8 K data_out [7:0] $end
    $var wire  1 M data_out_last $end
    $var wire  1 t data_out_last_next $end
    $var wire  1 M data_out_last_reg $end
    $var wire  8 r data_out_next [7:0] $end
    $var wire  1 "0 data_out_ready $end
    $var wire  8 K data_out_reg [7:0] $end
    $var wire  1 n data_out_reg_valid_next $end
    $var wire  1 V data_out_reg_valid_reg $end
    $var wire  1 L data_out_valid $end
    $var wire  1 s data_out_valid_next $end
    $var wire  1 L data_out_valid_reg $end
    $var wire  8 T data_reg [7:0] $end
    $var wire  1 m data_valid_next $end
    $var wire  1 U data_valid_reg $end
    $var wire  7 "1 device_address [6:0] $end
    $var wire  7 "2 device_address_mask [6:0] $end
    $var wire  1 "0 enable $end
    $var wire  1 W last_next $end
    $var wire  1 W last_reg $end
    $var wire  1 ^ last_scl_i_reg $end
    $var wire  1 _ last_sda_i_reg $end
    $var wire  1 o mode_read_next $end
    $var wire  1 X mode_read_reg $end
    $var wire  1 "/ release_bus $end
    $var wire  1 "* rst $end
    $var wire  1 ", scl_i $end
    $var wire  1 Z scl_i_filter [0:0] $end
    $var wire  1 \ scl_i_reg $end
    $var wire  1 y scl_negedge $end
    $var wire  1 I scl_o $end
    $var wire  1 u scl_o_next $end
    $var wire  1 I scl_o_reg $end
    $var wire  1 x scl_posedge $end
    $var wire  1 I scl_t $end
    $var wire  1 "+ sda_i $end
    $var wire  1 [ sda_i_filter [0:0] $end
    $var wire  1 ] sda_i_reg $end
    $var wire  1 a sda_negedge $end
    $var wire  1 H sda_o $end
    $var wire  1 v sda_o_next $end
    $var wire  1 H sda_o_reg $end
    $var wire  1 ` sda_posedge $end
    $var wire  1 H sda_t $end
    $var wire  1 z start_bit $end
    $var wire  5 j state_next [4:0] $end
    $var wire  5 S state_reg [4:0] $end
    $var wire  1 { stop_bit $end
   $upscope $end
  $upscope $end
 $upscope $end
$enddefinitions $end


#8
b00000100 #
b00000101 $
b00000111 %
b00001001 &
b00000100 '
b00010110 (
b11100010 )
b10110100 *
b01001101 +
b00000101 ,
b11011010 -
b11110001 .
b01101001 /
b00000000 0
b11011111 1
b00000111 2
b00110001 3
b00101010 4
b11100001 5
b10011110 6
b01010011 7
b00000010 8
b00011000 9
b00001001 :
b11000101 ;
b10001010 <
b01001110 =
b01110010 >
b01110001 ?
b11001001 @
b11111101 A
b10011100 B
b01110010 C
b00000000000000000000000000011101 D
b00000000000000000000000000000100 E
b00000000000000000000000000001001 F
b00000000000000000000000000011101 G
0R
b00000 S
b0000000 O
b00000000 T
0U
0V
0W
0X
b0000 Y
0J
b00000000 K
0L
0M
b1 Z
b1 [
1\
1]
1I
1H
1^
1_
0N
0Q
0P
0`
0a
1b
1c
1d
1e
1f
0g
0h
b00000000000000000000000000000000 i
b00000 j
b0000000 k
b00000000 l
0m
0n
0o
b0000 p
0q
b00000000 r
0s
0t
1u
1v
0w
0x
0y
0z
0{
b00000000 |
0}
0~
b00000000 "!
b00000000 ""
b0000000000000000 "#
b00000000000000000000000000000000 "$
b00000000000000000000000000000000 "%
b000 "&
b00000000000000000000000000000000 "'
b00000000000000000000000000000000 "(
1"-
1".
0")
0"*
1"+
1",
0"/
b0011000 "1
b1111000 "2
b00000000000000000000000000000001 "3
1"0
b00000 "4
b00001 "5
b00010 "6
b00011 "7
b00100 "8
b00101 "9
b00110 ":
b00111 ";
b00000000000000000000000011001000 "<
b00000000000000000000000000000100 "=
b1111010 ">
#10
b00000000000000000000000000000001 "$
1")
#15
0")
#18
1"*
#20
b00000000000000000000000000000000 "$
1")
#25
0")
#28
0"*
#30
b00000000000000000000000000000001 "$
1")
#35
0")
#38
#40
b00000000000000000000000000000010 "$
1")
#45
0")
#48
#50
b00000000000000000000000000000011 "$
1")
#55
0")
#58
#60
b00000000000000000000000000000100 "$
1")
#65
0")
#68
#70
b00000000000000000000000000000101 "$
1")
#75
0")
#78
#80
b00000000000000000000000000000110 "$
1")
#85
0")
#88
#90
b00000000000000000000000000000111 "$
1")
#95
0")
#98
#100
b00000000000000000000000000001000 "$
1")
#105
0")
#108
#110
b00000000000000000000000000001001 "$
1")
#115
0")
#118
#120
b00000000000000000000000000001010 "$
1")
#125
0")
#128
#130
b00000000000000000000000000001011 "$
1")
#135
0")
#138
#140
b00000000000000000000000000001100 "$
1")
#145
0")
#148
#150
b00000000000000000000000000001101 "$
1")
#155
0")
#158
#160
b00000000000000000000000000001110 "$
1")
#165
0")
#168
#170
b00000000000000000000000000001111 "$
1")
#175
0")
#178
#180
b00000000000000000000000000010000 "$
1")
#185
0")
#188
#190
b00000000000000000000000000010001 "$
1")
#195
0")
#198
#200
b00000000000000000000000000010010 "$
1")
#205
0")
#208
#210
b00000000000000000000000000010011 "$
1")
#215
0")
#218
#220
b00000000000000000000000000010100 "$
1")
#225
0")
#228
#230
b00000000000000000000000000010101 "$
1")
#235
0")
#238
#240
b00000000000000000000000000010110 "$
1")
#245
0")
#248
#250
b00000000000000000000000000010111 "$
1")
#255
0")
#258
#260
b00000000000000000000000000011000 "$
1")
#265
0")
#268
#270
b00000000000000000000000000011001 "$
1")
#275
0")
#278
#280
b00000000000000000000000000011010 "$
1")
#285
0")
#288
#290
b00000000000000000000000000011011 "$
1")
#295
0")
#298
#300
b00000000000000000000000000011100 "$
1")
#305
0")
#308
#310
b00000000000000000000000000011101 "$
1")
#315
0")
#318
#320
b00000000000000000000000000011110 "$
1")
#325
0")
#328
#330
b00000000000000000000000000011111 "$
1")
#335
0")
#338
#340
b00000000000000000000000000100000 "$
1")
#345
0")
#348
#350
b00000000000000000000000000100001 "$
1")
#355
0")
#358
#360
b00000000000000000000000000100010 "$
1")
#365
0")
#368
#370
b00000000000000000000000000100011 "$
1")
#375
0")
#378
#380
b00000000000000000000000000100100 "$
1")
#385
0")
#388
#390
b00000000000000000000000000100101 "$
1")
#395
0")
#398
#400
b00000000000000000000000000100110 "$
1")
#405
0")
#408
#410
b00000000000000000000000000100111 "$
1")
#415
0")
#418
#420
b00000000000000000000000000101000 "$
1")
#425
0")
#428
#430
b00000000000000000000000000101001 "$
1")
#435
0")
#438
#440
b00000000000000000000000000101010 "$
1")
#445
0")
#448
#450
b00000000000000000000000000101011 "$
1")
#455
0")
#458
#460
b00000000000000000000000000101100 "$
1")
#465
0")
#468
#470
b00000000000000000000000000101101 "$
1")
#475
0")
#478
#480
b00000000000000000000000000101110 "$
1")
#485
0")
#488
#490
b00000000000000000000000000101111 "$
1")
#495
0")
#498
#500
b00000000000000000000000000110000 "$
1")
#505
0")
#508
#510
b00000000000000000000000000110001 "$
1")
#515
0")
#518
#520
b00000000000000000000000000110010 "$
1")
#525
0")
#528
#530
b00000000000000000000000000110011 "$
1")
#535
0")
#538
#540
b00000000000000000000000000110100 "$
1")
#545
0")
#548
#550
b00000000000000000000000000110101 "$
1")
#555
0")
#558
0"-
0"+
#560
b0 [
b00000000000000000000000000110110 "$
1")
#565
0")
#568
#570
0]
1a
b00001 j
b0111 p
1t
1z
b00000000000000000000000000110111 "$
1")
#575
0")
#578
0".
0",
#580
b00001 S
b0111 Y
1M
b0 Z
0_
1Q
0a
0z
b00000000000000000000000000111000 "$
1")
#585
0")
#588
#590
0\
1N
1y
b00000000000000000000000000111001 "$
1")
#595
0")
#598
#600
0^
0y
b00000000000000000000000000111010 "$
1")
#605
0")
#608
#610
b00000000000000000000000000111011 "$
1")
#615
0")
#618
1".
1",
#620
b1 Z
b00000000000000000000000000111100 "$
1")
#625
0")
#628
#630
1\
b0110 p
1x
b00000000000000000000000000111101 "$
1")
#635
0")
#638
0".
0",
#640
b0110 Y
b0 Z
1^
0x
b00000000000000000000000000111110 "$
1")
#645
0")
#648
#650
0\
1y
b00000000000000000000000000111111 "$
1")
#655
0")
#658
#660
0^
0y
b00000000000000000000000001000000 "$
1")
#665
0")
#668
#670
b00000000000000000000000001000001 "$
1")
#675
0")
#678
1".
1",
#680
b1 Z
b00000000000000000000000001000010 "$
1")
#685
0")
#688
#690
1\
b0101 p
1x
b00000000000000000000000001000011 "$
1")
#695
0")
#698
0".
0",
#700
b0101 Y
b0 Z
1^
0x
b00000000000000000000000001000100 "$
1")
#705
0")
#708
#710
0\
1y
b00000000000000000000000001000101 "$
1")
#715
0")
#718
1"-
1"+
#720
b1 [
0^
0y
b00000000000000000000000001000110 "$
1")
#725
0")
#728
#730
1]
1`
b00000000000000000000000001000111 "$
1")
#735
0")
#738
1".
1",
#740
b1 Z
1_
0`
b00000000000000000000000001001000 "$
1")
#745
0")
#748
#750
1\
b00000001 l
b0100 p
1x
b00000000000000000000000001001001 "$
1")
#755
0")
#758
0".
0",
#760
b00000001 T
b0100 Y
b0 Z
1^
0x
b00000000000000000000000001001010 "$
1")
#765
0")
#768
#770
0\
1y
b00000000000000000000000001001011 "$
1")
#775
0")
#778
#780
0^
0y
b00000000000000000000000001001100 "$
1")
#785
0")
#788
#790
b00000000000000000000000001001101 "$
1")
#795
0")
#798
1".
1",
#800
b1 Z
b00000000000000000000000001001110 "$
1")
#805
0")
#808
#810
1\
b00000011 l
b0011 p
1x
b00000000000000000000000001001111 "$
1")
#815
0")
#818
0".
0",
#820
b00000011 T
b0011 Y
b0 Z
1^
0x
b00000000000000000000000001010000 "$
1")
#825
0")
#828
#830
0\
1y
b00000000000000000000000001010001 "$
1")
#835
0")
#838
#840
0^
0y
b00000000000000000000000001010010 "$
1")
#845
0")
#848
#850
b00000000000000000000000001010011 "$
1")
#855
0")
#858
1".
1",
#860
b1 Z
b00000000000000000000000001010100 "$
1")
#865
0")
#868
#870
1\
b00000111 l
b0010 p
1x
b00000000000000000000000001010101 "$
1")
#875
0")
#878
0".
0",
#880
b00000111 T
b0010 Y
b0 Z
1^
0x
b00000000000000000000000001010110 "$
1")
#885
0")
#888
#890
0\
1y
b00000000000000000000000001010111 "$
1")
#895
0")
#898
0"-
0"+
#900
b0 [
0^
0y
b00000000000000000000000001011000 "$
1")
#905
0")
#908
#910
0]
1a
b00000000000000000000000001011001 "$
1")
#915
0")
#918
1".
1",
#920
b1 Z
0_
0a
b00000000000000000000000001011010 "$
1")
#925
0")
#928
#930
1\
b00001110 l
b0001 p
1x
b00000000000000000000000001011011 "$
1")
#935
0")
#938
0".
0",
#940
b00001110 T
b0001 Y
b0 Z
1^
0x
b00000000000000000000000001011100 "$
1")
#945
0")
#948
#950
0\
1y
b00000000000000000000000001011101 "$
1")
#955
0")
#958
#960
0^
0y
b00000000000000000000000001011110 "$
1")
#965
0")
#968
#970
b00000000000000000000000001011111 "$
1")
#975
0")
#978
1".
1",
#980
b1 Z
b00000000000000000000000001100000 "$
1")
#985
0")
#988
#990
1\
b00011100 l
b0000 p
1x
b00000000000000000000000001100001 "$
1")
#995
0")
#998
0".
0",
#1000
b00011100 T
b0000 Y
b0 Z
1^
0x
b00000000000000000000000001100010 "$
1")
#1005
0")
#1008
#1010
0\
1y
b00000000000000000000000001100011 "$
1")
#1015
0")
#1018
1"-
1"+
#1020
b1 [
0^
0y
b00000000000000000000000001100100 "$
1")
#1025
0")
#1028
#1030
1]
1`
b00000000000000000000000001100101 "$
1")
#1035
0")
#1038
1".
1",
#1040
b1 Z
1_
0`
b00000000000000000000000001100110 "$
1")
#1045
0")
#1048
#1050
1\
b00010 j
b0011100 k
1o
1w
1x
b00000000000000000000000001100111 "$
1")
#1055
0")
#1058
0".
0",
#1060
b00010 S
b0011100 O
1X
b0 Z
1^
1P
0x
b00000000000000000000000001101000 "$
1")
#1065
0")
#1068
#1070
0\
b00101 j
b0111 p
1q
0v
1y
b00000000000000000000000001101001 "$
1")
#1075
0")
#1078
#1080
b00101 S
b0111 Y
1J
0H
0^
0y
b00000000000000000000000001101010 "$
0"-
1")
#1085
0")
#1088
#1090
b00110110 l
1m
0q
b00110110 |
1}
b00000000000000000000000001101011 "$
1")
#1095
0")
#1098
1".
1",
#1100
b00110110 T
1U
0J
b1 Z
b00000000000000000000000001101100 "$
1")
#1105
0")
#1108
#1110
1\
1x
b00000000 |
0}
b00000000000000000000000001101101 "$
1")
#1115
0")
#1118
0".
0",
#1120
b0 Z
1^
0x
b00000000000000000000000001101110 "$
1")
#1125
0")
#1128
#1130
0\
b01101100 l
b0110 p
1y
b00000000000000000000000001101111 "$
1")
#1135
0")
#1138
#1140
b01101100 T
b0110 Y
0^
0y
b00000000000000000000000001110000 "$
1")
#1145
0")
#1148
#1150
b00000000000000000000000001110001 "$
1")
#1155
0")
#1158
1".
1",
#1160
b1 Z
b00000000000000000000000001110010 "$
1")
#1165
0")
#1168
#1170
1\
1x
b00000000000000000000000001110011 "$
1")
#1175
0")
#1178
0".
0",
#1180
b0 Z
1^
0x
b00000000000000000000000001110100 "$
1")
#1185
0")
#1188
#1190
0\
b11011000 l
b0101 p
1y
b00000000000000000000000001110101 "$
1")
#1195
0")
#1198
#1200
b11011000 T
b0101 Y
0^
0y
b00000000000000000000000001110110 "$
1")
#1205
0")
#1208
#1210
b00000000000000000000000001110111 "$
1")
#1215
0")
#1218
1".
1",
#1220
b1 Z
b00000000000000000000000001111000 "$
1")
#1225
0")
#1228
#1230
1\
1x
b00000000000000000000000001111001 "$
1")
#1235
0")
#1238
0".
0",
#1240
b0 Z
1^
0x
b00000000000000000000000001111010 "$
1")
#1245
0")
#1248
#1250
0\
b10110000 l
b0100 p
1v
1y
b00000000000000000000000001111011 "$
1")
#1255
0")
#1258
#1260
b10110000 T
b0100 Y
1H
0^
0y
b00000000000000000000000001111100 "$
1"-
1")
#1265
0")
#1268
#1270
b00000000000000000000000001111101 "$
1")
#1275
0")
#1278
1".
1",
#1280
b1 Z
b00000000000000000000000001111110 "$
1")
#1285
0")
#1288
#1290
1\
1x
b00000000000000000000000001111111 "$
1")
#1295
0")
#1298
0".
0",
#1300
b0 Z
1^
0x
b00000000000000000000000010000000 "$
1")
#1305
0")
#1308
#1310
0\
b01100000 l
b0011 p
1y
b00000000000000000000000010000001 "$
1")
#1315
0")
#1318
#1320
b01100000 T
b0011 Y
0^
0y
b00000000000000000000000010000010 "$
1")
#1325
0")
#1328
#1330
b00000000000000000000000010000011 "$
1")
#1335
0")
#1338
1".
1",
#1340
b1 Z
b00000000000000000000000010000100 "$
1")
#1345
0")
#1348
#1350
1\
1x
b00000000000000000000000010000101 "$
1")
#1355
0")
#1358
0".
0",
#1360
b0 Z
1^
0x
b00000000000000000000000010000110 "$
1")
#1365
0")
#1368
#1370
0\
b11000000 l
b0010 p
0v
1y
b00000000000000000000000010000111 "$
1")
#1375
0")
#1378
#1380
b11000000 T
b0010 Y
0H
0^
0y
b00000000000000000000000010001000 "$
0"-
1")
#1385
0")
#1388
#1390
b00000000000000000000000010001001 "$
1")
#1395
0")
#1398
1".
1",
#1400
b1 Z
b00000000000000000000000010001010 "$
1")
#1405
0")
#1408
#1410
1\
1x
b00000000000000000000000010001011 "$
1")
#1415
0")
#1418
0".
0",
#1420
b0 Z
1^
0x
b00000000000000000000000010001100 "$
1")
#1425
0")
#1428
#1430
0\
b10000000 l
b0001 p
1v
1y
b00000000000000000000000010001101 "$
1")
#1435
0")
#1438
#1440
b10000000 T
b0001 Y
1H
0^
0y
b00000000000000000000000010001110 "$
1"-
1")
#1445
0")
#1448
#1450
b00000000000000000000000010001111 "$
1")
#1455
0")
#1458
1".
1",
#1460
b1 Z
b00000000000000000000000010010000 "$
1")
#1465
0")
#1468
#1470
1\
1x
b00000000000000000000000010010001 "$
1")
#1475
0")
#1478
0".
0",
#1480
b0 Z
1^
0x
b00000000000000000000000010010010 "$
1")
#1485
0")
#1488
#1490
0\
b00000000 l
b0000 p
1y
b00000000000000000000000010010011 "$
1")
#1495
0")
#1498
#1500
b00000000 T
b0000 Y
0^
0y
b00000000000000000000000010010100 "$
1")
#1505
0")
#1508
#1510
b00000000000000000000000010010101 "$
1")
#1515
0")
#1518
1".
1",
#1520
b1 Z
b00000000000000000000000010010110 "$
1")
#1525
0")
#1528
#1530
1\
1x
b00000000000000000000000010010111 "$
1")
#1535
0")
#1538
0".
0",
#1540
b0 Z
1^
0x
b00000000000000000000000010011000 "$
1")
#1545
0")
#1548
#1550
0\
b00110 j
0v
1y
b00000000000000000000000010011001 "$
1")
#1555
0")
#1558
#1560
b00110 S
0H
0^
0y
b00000000000000000000000010011010 "$
0"-
1")
#1565
0")
#1568
#1570
b00000000000000000000000010011011 "$
1")
#1575
0")
#1578
1".
1",
#1580
b1 Z
b00000000000000000000000010011100 "$
1")
#1585
0")
#1588
#1590
1\
1x
b00000000000000000000000010011101 "$
1")
#1595
0")
#1598
0".
0",
#1600
b0 Z
1^
0x
b00000000000000000000000010011110 "$
1")
#1605
0")
#1608
#1610
0\
b00111 j
1v
1y
b00000000000000000000000010011111 "$
1")
#1615
0")
#1618
#1620
b00111 S
1H
0^
0y
b00000000000000000000000010100000 "$
1"-
1")
#1625
0")
#1628
#1630
b00000000000000000000000010100001 "$
1")
#1635
0")
#1638
1".
1",
#1640
b1 Z
b00000000000000000000000010100010 "$
1")
#1645
0")
#1648
#1650
1\
b00000 j
1x
b00000000000000000000000010100011 "$
1")
#1655
0")
#1658
0".
0",
#1660
b00000 S
b0 Z
1^
0m
0w
0x
b00000000000000000000000010100100 "$
1")
#1665
0")
#1668
#1670
0U
0\
0N
0P
1y
b00000000000000000000000010100101 "$
1")
#1675
0")
#1678
0"-
0"+
#1680
b0 [
0^
0y
b00000000000000000000000010100110 "$
1")
#1685
0")
#1688
#1690
0]
1a
b00000000000000000000000010100111 "$
1")
#1695
0")
#1698
1".
1",
#1700
b1 Z
0_
0a
b00000000000000000000000010101000 "$
1")
#1705
0")
#1708
#1710
1\
1x
b00000000000000000000000010101001 "$
1")
#1715
0")
#1718
1"-
1"+
#1720
b1 [
1^
0x
b00000000000000000000000010101010 "$
1")
#1725
0")
#1728
#1730
1]
1`
1{
b00000000000000000000000010101011 "$
1")
#1735
0")
#1738
#1740
1_
0Q
0`
0{
b00000000000000000000000010101100 "$
1")
#1745
0")
#1748
#1750
b00000000000000000000000010101101 "$
1")
#1755
0")
#1758
0"-
0"+
#1760
b0 [
b00000000000000000000000010101110 "$
1")
#1765
0")
#1768
#1770
0]
1a
b00001 j
b0111 p
1z
b00000000000000000000000010101111 "$
1")
#1775
0")
#1778
0".
0",
#1780
b00001 S
b0111 Y
b0 Z
0_
1Q
0a
0z
b00000000000000000000000010110000 "$
1")
#1785
0")
#1788
#1790
0\
1N
1y
b00000000000000000000000010110001 "$
1")
#1795
0")
#1798
#1800
0^
0y
b00000000000000000000000010110010 "$
1")
#1805
0")
#1808
#1810
b00000000000000000000000010110011 "$
1")
#1815
0")
#1818
1".
1",
#1820
b1 Z
b00000000000000000000000010110100 "$
1")
#1825
0")
#1828
#1830
1\
b0110 p
1x
b00000000000000000000000010110101 "$
1")
#1835
0")
#1838
0".
0",
#1840
b0110 Y
b0 Z
1^
0x
b00000000000000000000000010110110 "$
1")
#1845
0")
#1848
#1850
0\
1y
b00000000000000000000000010110111 "$
1")
#1855
0")
#1858
#1860
0^
0y
b00000000000000000000000010111000 "$
1")
#1865
0")
#1868
#1870
b00000000000000000000000010111001 "$
1")
#1875
0")
#1878
1".
1",
#1880
b1 Z
b00000000000000000000000010111010 "$
1")
#1885
0")
#1888
#1890
1\
b0101 p
1x
b00000000000000000000000010111011 "$
1")
#1895
0")
#1898
0".
0",
#1900
b0101 Y
b0 Z
1^
0x
b00000000000000000000000010111100 "$
1")
#1905
0")
#1908
#1910
0\
1y
b00000000000000000000000010111101 "$
1")
#1915
0")
#1918
1"-
1"+
#1920
b1 [
0^
0y
b00000000000000000000000010111110 "$
1")
#1925
0")
#1928
#1930
1]
1`
b00000000000000000000000010111111 "$
1")
#1935
0")
#1938
1".
1",
#1940
b1 Z
1_
0`
b00000000000000000000000011000000 "$
1")
#1945
0")
#1948
#1950
1\
b00000001 l
b0100 p
1x
b00000000000000000000000011000001 "$
1")
#1955
0")
#1958
0".
0",
#1960
b00000001 T
b0100 Y
b0 Z
1^
0x
b00000000000000000000000011000010 "$
1")
#1965
0")
#1968
#1970
0\
1y
b00000000000000000000000011000011 "$
1")
#1975
0")
#1978
#1980
0^
0y
b00000000000000000000000011000100 "$
1")
#1985
0")
#1988
#1990
b00000000000000000000000011000101 "$
1")
#1995
0")
#1998
1".
1",
#2000
b1 Z
b00000000000000000000000011000110 "$
1")
#2005
0")
#2008
#2010
1\
b00000011 l
b0011 p
1x
b00000000000000000000000011000111 "$
1")
#2015
0")
#2018
0".
0",
#2020
b00000011 T
b0011 Y
b0 Z
1^
0x
b00000000000000000000000011001000 "$
1")
#2025
0")
#2028
#2030
0\
1y
b00000000000000000000000011001001 "$
1")
#2035
0")
#2038
#2040
0^
0y
b00000000000000000000000011001010 "$
1")
#2045
0")
#2048
#2050
b00000000000000000000000011001011 "$
1")
#2055
0")
#2058
1".
1",
#2060
b1 Z
b00000000000000000000000011001100 "$
1")
#2065
0")
#2068
#2070
1\
b00000111 l
b0010 p
1x
b00000000000000000000000011001101 "$
1")
#2075
0")
#2078
0".
0",
#2080
b00000111 T
b0010 Y
b0 Z
1^
0x
b00000000000000000000000011001110 "$
1")
#2085
0")
#2088
#2090
0\
1y
b00000000000000000000000011001111 "$
1")
#2095
0")
#2098
0"-
0"+
#2100
b0 [
0^
0y
b00000000000000000000000011010000 "$
1")
#2105
0")
#2108
#2110
0]
1a
b00000000000000000000000011010001 "$
1")
#2115
0")
#2118
1".
1",
#2120
b1 Z
0_
0a
b00000000000000000000000011010010 "$
1")
#2125
0")
#2128
#2130
1\
b00001110 l
b0001 p
1x
b00000000000000000000000011010011 "$
1")
#2135
0")
#2138
0".
0",
#2140
b00001110 T
b0001 Y
b0 Z
1^
0x
b00000000000000000000000011010100 "$
1")
#2145
0")
#2148
#2150
0\
1y
b00000000000000000000000011010101 "$
1")
#2155
0")
#2158
1"-
1"+
#2160
b1 [
0^
0y
b00000000000000000000000011010110 "$
1")
#2165
0")
#2168
#2170
1]
1`
b00000000000000000000000011010111 "$
1")
#2175
0")
#2178
1".
1",
#2180
b1 Z
1_
0`
b00000000000000000000000011011000 "$
1")
#2185
0")
#2188
#2190
1\
b00011101 l
b0000 p
1x
b00000000000000000000000011011001 "$
1")
#2195
0")
#2198
0".
0",
#2200
b00011101 T
b0000 Y
b0 Z
1^
0x
b00000000000000000000000011011010 "$
1")
#2205
0")
#2208
#2210
0\
1y
b00000000000000000000000011011011 "$
1")
#2215
0")
#2218
#2220
0^
0y
b00000000000000000000000011011100 "$
1")
#2225
0")
#2228
#2230
b00000000000000000000000011011101 "$
1")
#2235
0")
#2238
1".
1",
#2240
b1 Z
b00000000000000000000000011011110 "$
1")
#2245
0")
#2248
#2250
1\
b00010 j
b0011101 k
1w
1x
b00000000000000000000000011011111 "$
1")
#2255
0")
#2258
0".
0",
#2260
b00010 S
b0011101 O
b0 Z
1^
1P
0x
b00000000000000000000000011100000 "$
1")
#2265
0")
#2268
#2270
0\
b00101 j
b0111 p
1q
0v
1y
b00000000000000000000000011100001 "$
1")
#2275
0")
#2278
#2280
b00101 S
b0111 Y
1J
0H
0^
0y
b00000000000000000000000011100010 "$
0"-
1")
#2285
0")
#2288
#2290
b00000000000000000000000000000001 i
b00000011 l
1m
0q
b00000011 |
1}
1~
b00000000000000000000000011100011 "$
1")
#2295
0")
#2298
1".
1",
#2300
b00000011 T
1U
0J
b1 Z
0f
b00000000000000000000000011100100 "$
b00000000000000000000000000000001 "(
1")
#2305
0")
#2308
#2310
1\
1x
b00000000 |
0}
b00000000000000000000000011100101 "$
b00000000000000000000000000000001 "%
1")
#2315
0")
#2318
0".
0",
#2320
b0 Z
1^
0x
b00000000000000000000000011100110 "$
b00000000000000000000000000000010 "%
1")
#2325
0")
#2328
#2330
0\
b00000110 l
b0110 p
1y
b00000000000000000000000011100111 "$
b00000000000000000000000000000011 "%
1")
#2335
0")
#2338
#2340
b00000110 T
b0110 Y
0^
0y
b00000000000000000000000011101000 "$
b00000000000000000000000000000100 "%
1")
#2345
0")
#2348
#2350
b00000000000000000000000011101001 "$
b00000000000000000000000000000101 "%
1")
#2355
0")
#2358
1".
1",
